<?xml version="1.0" encoding="utf-8"?>
<!-- Generator: Adobe Illustrator 18.1.0, SVG Export Plug-In . SVG Version: 6.00 Build 0)  -->
<svg version="1.1" id="Слой_1" xmlns="http://www.w3.org/2000/svg" xmlns:xlink="http://www.w3.org/1999/xlink" x="0px" y="0px"
	 width="1020px" height="510px" viewBox="0 0 1020 510" enable-background="new 0 0 1020 510" xml:space="preserve">
<g>
	<g>
		<g>
			<defs>
				<rect id="SVGID_29_" x="-1071.326" y="-264.079" width="648.935" height="541.585"/>
			</defs>
			<clipPath id="SVGID_2_">
				<use xlink:href="#SVGID_29_"  overflow="visible"/>
			</clipPath>
			<g clip-path="url(#SVGID_2_)">
				
					<image overflow="visible" width="1623" height="832" xlink:href="1701DFAB.jpg"  transform="matrix(1.0697 0 0 1.0697 -1167.5092 -395.7863)">
				</image>
			</g>
		</g>
	</g>
</g>
<g>
	<defs>
		<rect id="SVGID_35_" x="0" y="0" width="1020" height="510"/>
	</defs>
	<clipPath id="SVGID_4_">
		<use xlink:href="#SVGID_35_"  overflow="visible"/>
	</clipPath>
	
		<rect x="612.012" y="-85.006" clip-path="url(#SVGID_4_)" fill-rule="evenodd" clip-rule="evenodd" fill="#FF5433" width="612.038" height="884.06"/>
	
		<rect x="612.012" y="-34.002" clip-path="url(#SVGID_4_)" fill-rule="evenodd" clip-rule="evenodd" fill="#FF5433" width="51.003" height="85.006"/>
	
		<rect x="612.012" y="68.005" clip-path="url(#SVGID_4_)" fill-rule="evenodd" clip-rule="evenodd" fill="#E02EB5" width="51.003" height="51.003"/>
	
		<rect x="663.015" y="-68.005" clip-path="url(#SVGID_4_)" fill-rule="evenodd" clip-rule="evenodd" fill="#A614B5" width="51.004" height="68.005"/>
	
		<rect x="765.023" y="-68.005" clip-path="url(#SVGID_4_)" fill-rule="evenodd" clip-rule="evenodd" fill="#FAAB00" width="51.003" height="68.005"/>
	
		<rect x="816.026" y="-17.001" clip-path="url(#SVGID_4_)" fill-rule="evenodd" clip-rule="evenodd" fill="#FA3363" width="51.003" height="51.003"/>
	
		<rect x="714.019" y="-17.001" clip-path="url(#SVGID_4_)" fill-rule="evenodd" clip-rule="evenodd" fill="#FF3333" width="51.003" height="68.005"/>
	
		<rect x="663.015" y="17.001" clip-path="url(#SVGID_4_)" fill-rule="evenodd" clip-rule="evenodd" fill="#FAAB00" width="51.004" height="51.003"/>
	
		<rect x="867.029" y="0" clip-path="url(#SVGID_4_)" fill-rule="evenodd" clip-rule="evenodd" fill="#A614B5" width="51.003" height="68.005"/>
	
		<rect x="663.015" y="85.006" clip-path="url(#SVGID_4_)" fill-rule="evenodd" clip-rule="evenodd" fill="#FF3333" width="51.004" height="51.003"/>
	
		<rect x="714.019" y="68.005" clip-path="url(#SVGID_4_)" fill-rule="evenodd" clip-rule="evenodd" fill="#A614B5" width="51.003" height="51.003"/>
	
		<rect x="765.023" y="17.003" clip-path="url(#SVGID_4_)" fill-rule="evenodd" clip-rule="evenodd" fill="#FF5433" width="51.003" height="119.007"/>
	
		<rect x="867.029" y="85.006" clip-path="url(#SVGID_4_)" fill-rule="evenodd" clip-rule="evenodd" fill="#FAAB00" width="51.003" height="51.003"/>
	
		<rect x="816.026" y="51.004" clip-path="url(#SVGID_4_)" fill-rule="evenodd" clip-rule="evenodd" fill="#FF7829" width="51.003" height="68.005"/>
	
		<rect x="918.032" y="-34.002" clip-path="url(#SVGID_4_)" fill-rule="evenodd" clip-rule="evenodd" fill="#FF5433" width="51.003" height="85.006"/>
	
		<rect x="918.032" y="68.005" clip-path="url(#SVGID_4_)" fill-rule="evenodd" clip-rule="evenodd" fill="#E02EB5" width="51.003" height="51.003"/>
	
		<rect x="969.035" y="-68.005" clip-path="url(#SVGID_4_)" fill-rule="evenodd" clip-rule="evenodd" fill="#A614B5" width="51.003" height="68.005"/>
	
		<rect x="969.035" y="17.001" clip-path="url(#SVGID_4_)" fill-rule="evenodd" clip-rule="evenodd" fill="#FAAB00" width="51.003" height="51.003"/>
	
		<rect x="969.035" y="85.006" clip-path="url(#SVGID_4_)" fill-rule="evenodd" clip-rule="evenodd" fill="#FF3333" width="51.003" height="51.003"/>
	
		<rect x="612.012" y="136.009" clip-path="url(#SVGID_4_)" fill-rule="evenodd" clip-rule="evenodd" fill="#FAAB00" width="51.003" height="34.002"/>
	
		<rect x="612.012" y="187.013" clip-path="url(#SVGID_4_)" fill-rule="evenodd" clip-rule="evenodd" fill="#FF5433" width="51.003" height="85.006"/>
	
		<rect x="612.012" y="289.021" clip-path="url(#SVGID_4_)" fill-rule="evenodd" clip-rule="evenodd" fill="#E02EB5" width="51.003" height="51.003"/>
	
		<rect x="714.019" y="136.009" clip-path="url(#SVGID_4_)" fill-rule="evenodd" clip-rule="evenodd" fill="#FF7829" width="51.003" height="51.003"/>
	
		<rect x="816.026" y="136.009" clip-path="url(#SVGID_4_)" fill-rule="evenodd" clip-rule="evenodd" fill="#A614B5" width="51.003" height="51.003"/>
	
		<rect x="867.029" y="153.011" clip-path="url(#SVGID_4_)" fill-rule="evenodd" clip-rule="evenodd" fill="#FF3333" width="51.003" height="51.003"/>
	
		<rect x="663.015" y="153.012" clip-path="url(#SVGID_4_)" fill-rule="evenodd" clip-rule="evenodd" fill="#A614B5" width="51.004" height="68.004"/>
	
		<rect x="765.023" y="153.012" clip-path="url(#SVGID_4_)" fill-rule="evenodd" clip-rule="evenodd" fill="#FAAB00" width="51.003" height="68.004"/>
	
		<rect x="816.026" y="204.015" clip-path="url(#SVGID_4_)" fill-rule="evenodd" clip-rule="evenodd" fill="#FA3363" width="51.003" height="51.003"/>
	
		<rect x="714.019" y="204.015" clip-path="url(#SVGID_4_)" fill-rule="evenodd" clip-rule="evenodd" fill="#FF3333" width="51.003" height="68.005"/>
	
		<rect x="663.015" y="238.017" clip-path="url(#SVGID_4_)" fill-rule="evenodd" clip-rule="evenodd" fill="#FAAB00" width="51.004" height="51.003"/>
	
		<rect x="867.029" y="221.016" clip-path="url(#SVGID_4_)" fill-rule="evenodd" clip-rule="evenodd" fill="#A614B5" width="51.003" height="68.005"/>
	
		<rect x="663.015" y="306.021" clip-path="url(#SVGID_4_)" fill-rule="evenodd" clip-rule="evenodd" fill="#FF3333" width="51.004" height="51.003"/>
	
		<rect x="714.019" y="289.021" clip-path="url(#SVGID_4_)" fill-rule="evenodd" clip-rule="evenodd" fill="#A614B5" width="51.003" height="51.003"/>
	
		<rect x="765.023" y="238.019" clip-path="url(#SVGID_4_)" fill-rule="evenodd" clip-rule="evenodd" fill="#FF5433" width="51.003" height="119.006"/>
	
		<rect x="867.029" y="306.021" clip-path="url(#SVGID_4_)" fill-rule="evenodd" clip-rule="evenodd" fill="#FAAB00" width="51.003" height="51.003"/>
	
		<rect x="816.026" y="272.019" clip-path="url(#SVGID_4_)" fill-rule="evenodd" clip-rule="evenodd" fill="#FF7829" width="51.003" height="68.005"/>
	
		<rect x="918.032" y="136.009" clip-path="url(#SVGID_4_)" fill-rule="evenodd" clip-rule="evenodd" fill="#FAAB00" width="51.003" height="34.002"/>
	
		<rect x="918.032" y="187.013" clip-path="url(#SVGID_4_)" fill-rule="evenodd" clip-rule="evenodd" fill="#FF5433" width="51.003" height="85.006"/>
	
		<rect x="918.032" y="289.021" clip-path="url(#SVGID_4_)" fill-rule="evenodd" clip-rule="evenodd" fill="#E02EB5" width="51.003" height="51.003"/>
	
		<rect x="969.035" y="153.012" clip-path="url(#SVGID_4_)" fill-rule="evenodd" clip-rule="evenodd" fill="#A614B5" width="51.003" height="68.004"/>
	
		<rect x="969.035" y="238.017" clip-path="url(#SVGID_4_)" fill-rule="evenodd" clip-rule="evenodd" fill="#FAAB00" width="51.003" height="51.003"/>
	
		<rect x="969.035" y="306.021" clip-path="url(#SVGID_4_)" fill-rule="evenodd" clip-rule="evenodd" fill="#FF3333" width="51.003" height="51.003"/>
	
		<rect x="612.012" y="357.025" clip-path="url(#SVGID_4_)" fill-rule="evenodd" clip-rule="evenodd" fill="#FAAB00" width="51.003" height="34.002"/>
	
		<rect x="612.012" y="408.029" clip-path="url(#SVGID_4_)" fill-rule="evenodd" clip-rule="evenodd" fill="#FF5433" width="51.003" height="85.006"/>
	
		<rect x="714.019" y="357.025" clip-path="url(#SVGID_4_)" fill-rule="evenodd" clip-rule="evenodd" fill="#FF7829" width="51.003" height="51.003"/>
	
		<rect x="816.026" y="357.025" clip-path="url(#SVGID_4_)" fill-rule="evenodd" clip-rule="evenodd" fill="#A614B5" width="51.003" height="51.003"/>
	
		<rect x="867.029" y="374.026" clip-path="url(#SVGID_4_)" fill-rule="evenodd" clip-rule="evenodd" fill="#FF3333" width="51.003" height="51.003"/>
	
		<rect x="663.015" y="374.026" clip-path="url(#SVGID_4_)" fill-rule="evenodd" clip-rule="evenodd" fill="#A614B5" width="51.004" height="68.005"/>
	
		<rect x="765.023" y="374.026" clip-path="url(#SVGID_4_)" fill-rule="evenodd" clip-rule="evenodd" fill="#FAAB00" width="51.003" height="68.005"/>
	
		<rect x="816.026" y="425.03" clip-path="url(#SVGID_4_)" fill-rule="evenodd" clip-rule="evenodd" fill="#FA3363" width="51.003" height="51.003"/>
	
		<rect x="714.019" y="425.03" clip-path="url(#SVGID_4_)" fill-rule="evenodd" clip-rule="evenodd" fill="#FF3333" width="51.003" height="68.004"/>
	
		<rect x="663.015" y="459.033" clip-path="url(#SVGID_4_)" fill-rule="evenodd" clip-rule="evenodd" fill="#FAAB00" width="51.004" height="51.003"/>
	
		<rect x="867.029" y="442.031" clip-path="url(#SVGID_4_)" fill-rule="evenodd" clip-rule="evenodd" fill="#A614B5" width="51.003" height="68.004"/>
	
		<rect x="765.023" y="459.034" clip-path="url(#SVGID_4_)" fill-rule="evenodd" clip-rule="evenodd" fill="#FF5433" width="51.003" height="119.007"/>
	
		<rect x="816.026" y="493.035" clip-path="url(#SVGID_4_)" fill-rule="evenodd" clip-rule="evenodd" fill="#FF7829" width="51.003" height="68.005"/>
	
		<rect x="918.032" y="357.025" clip-path="url(#SVGID_4_)" fill-rule="evenodd" clip-rule="evenodd" fill="#FAAB00" width="51.003" height="34.002"/>
	
		<rect x="918.032" y="408.029" clip-path="url(#SVGID_4_)" fill-rule="evenodd" clip-rule="evenodd" fill="#FF5433" width="51.003" height="85.006"/>
	
		<rect x="969.035" y="374.026" clip-path="url(#SVGID_4_)" fill-rule="evenodd" clip-rule="evenodd" fill="#A614B5" width="51.003" height="68.005"/>
	
		<rect x="969.035" y="459.033" clip-path="url(#SVGID_4_)" fill-rule="evenodd" clip-rule="evenodd" fill="#FAAB00" width="51.003" height="51.003"/>
	
		<rect x="612.012" y="-17.001" clip-path="url(#SVGID_4_)" fill-rule="evenodd" clip-rule="evenodd" fill="#FF7829" width="51.003" height="17.001"/>
	
		<rect x="612.012" y="85.006" clip-path="url(#SVGID_4_)" fill-rule="evenodd" clip-rule="evenodd" fill="#FA3363" width="51.003" height="17.001"/>
	
		<rect x="714.019" y="0" clip-path="url(#SVGID_4_)" fill-rule="evenodd" clip-rule="evenodd" fill="#FF5433" width="51.003" height="17.001"/>
	
		<rect x="816.026" y="0" clip-path="url(#SVGID_4_)" fill-rule="evenodd" clip-rule="evenodd" fill="#FF5433" width="51.003" height="17.001"/>
	
		<rect x="867.029" y="17.002" clip-path="url(#SVGID_4_)" fill-rule="evenodd" clip-rule="evenodd" fill="#E02EB5" width="51.003" height="17.001"/>
	
		<rect x="663.015" y="34.003" clip-path="url(#SVGID_4_)" fill-rule="evenodd" clip-rule="evenodd" fill="#FAD100" width="51.004" height="17.001"/>
	
		<rect x="765.023" y="34.003" clip-path="url(#SVGID_4_)" fill-rule="evenodd" clip-rule="evenodd" fill="#FF7829" width="51.003" height="17.001"/>
	
		<rect x="816.026" y="68.005" clip-path="url(#SVGID_4_)" fill-rule="evenodd" clip-rule="evenodd" fill="#FAAB00" width="51.003" height="17.001"/>
	
		<rect x="714.019" y="85.006" clip-path="url(#SVGID_4_)" fill-rule="evenodd" clip-rule="evenodd" fill="#E02EB5" width="51.003" height="17.001"/>
	
		<rect x="663.015" y="102.007" clip-path="url(#SVGID_4_)" fill-rule="evenodd" clip-rule="evenodd" fill="#FF5433" width="51.004" height="17.001"/>
	
		<rect x="867.029" y="102.007" clip-path="url(#SVGID_4_)" fill-rule="evenodd" clip-rule="evenodd" fill="#FAD100" width="51.003" height="17.001"/>
	
		<rect x="918.032" y="-17.001" clip-path="url(#SVGID_4_)" fill-rule="evenodd" clip-rule="evenodd" fill="#FF7829" width="51.003" height="17.001"/>
	
		<rect x="918.032" y="85.006" clip-path="url(#SVGID_4_)" fill-rule="evenodd" clip-rule="evenodd" fill="#FA3363" width="51.003" height="17.001"/>
	
		<rect x="969.035" y="34.003" clip-path="url(#SVGID_4_)" fill-rule="evenodd" clip-rule="evenodd" fill="#FAD100" width="51.003" height="17.001"/>
	
		<rect x="969.035" y="102.007" clip-path="url(#SVGID_4_)" fill-rule="evenodd" clip-rule="evenodd" fill="#FF5433" width="51.003" height="17.001"/>
	
		<rect x="612.012" y="153.011" clip-path="url(#SVGID_4_)" fill-rule="evenodd" clip-rule="evenodd" fill="#FAD100" width="51.003" height="17"/>
	
		<rect x="612.012" y="204.015" clip-path="url(#SVGID_4_)" fill-rule="evenodd" clip-rule="evenodd" fill="#FF7829" width="51.003" height="17.001"/>
	
		<rect x="612.012" y="306.022" clip-path="url(#SVGID_4_)" fill-rule="evenodd" clip-rule="evenodd" fill="#FA3363" width="51.003" height="17.001"/>
	
		<rect x="714.019" y="153.011" clip-path="url(#SVGID_4_)" fill-rule="evenodd" clip-rule="evenodd" fill="#FAAB00" width="51.003" height="17"/>
	
		<rect x="816.026" y="153.011" clip-path="url(#SVGID_4_)" fill-rule="evenodd" clip-rule="evenodd" fill="#E02EB5" width="51.003" height="17"/>
	
		<rect x="663.015" y="170.012" clip-path="url(#SVGID_4_)" fill-rule="evenodd" clip-rule="evenodd" fill="#E02EB5" width="51.004" height="17.001"/>
	
		<rect x="765.023" y="170.012" clip-path="url(#SVGID_4_)" fill-rule="evenodd" clip-rule="evenodd" fill="#FAD100" width="51.003" height="17.001"/>
	
		<rect x="867.029" y="170.012" clip-path="url(#SVGID_4_)" fill-rule="evenodd" clip-rule="evenodd" fill="#FF5433" width="51.003" height="17.001"/>
	
		<rect x="714.019" y="221.016" clip-path="url(#SVGID_4_)" fill-rule="evenodd" clip-rule="evenodd" fill="#FF5433" width="51.003" height="17.001"/>
	
		<rect x="816.026" y="221.016" clip-path="url(#SVGID_4_)" fill-rule="evenodd" clip-rule="evenodd" fill="#FF5433" width="51.003" height="17.001"/>
	
		<rect x="867.029" y="238.017" clip-path="url(#SVGID_4_)" fill-rule="evenodd" clip-rule="evenodd" fill="#E02EB5" width="51.003" height="17.001"/>
	
		<rect x="663.015" y="255.018" clip-path="url(#SVGID_4_)" fill-rule="evenodd" clip-rule="evenodd" fill="#FAD100" width="51.004" height="17.001"/>
	
		<rect x="765.023" y="255.018" clip-path="url(#SVGID_4_)" fill-rule="evenodd" clip-rule="evenodd" fill="#FF7829" width="51.003" height="17.001"/>
	
		<rect x="816.026" y="289.021" clip-path="url(#SVGID_4_)" fill-rule="evenodd" clip-rule="evenodd" fill="#FAAB00" width="51.003" height="17.001"/>
	
		<rect x="714.019" y="306.022" clip-path="url(#SVGID_4_)" fill-rule="evenodd" clip-rule="evenodd" fill="#E02EB5" width="51.003" height="17.001"/>
	
		<rect x="663.015" y="323.023" clip-path="url(#SVGID_4_)" fill-rule="evenodd" clip-rule="evenodd" fill="#FF5433" width="51.004" height="17.001"/>
	
		<rect x="867.029" y="323.023" clip-path="url(#SVGID_4_)" fill-rule="evenodd" clip-rule="evenodd" fill="#FAD100" width="51.003" height="17.001"/>
	
		<rect x="918.032" y="153.011" clip-path="url(#SVGID_4_)" fill-rule="evenodd" clip-rule="evenodd" fill="#FAD100" width="51.003" height="17"/>
	
		<rect x="918.032" y="204.015" clip-path="url(#SVGID_4_)" fill-rule="evenodd" clip-rule="evenodd" fill="#FF7829" width="51.003" height="17.001"/>
	
		<rect x="918.032" y="306.022" clip-path="url(#SVGID_4_)" fill-rule="evenodd" clip-rule="evenodd" fill="#FA3363" width="51.003" height="17.001"/>
	
		<rect x="969.035" y="170.012" clip-path="url(#SVGID_4_)" fill-rule="evenodd" clip-rule="evenodd" fill="#E02EB5" width="51.003" height="17.001"/>
	
		<rect x="969.035" y="255.018" clip-path="url(#SVGID_4_)" fill-rule="evenodd" clip-rule="evenodd" fill="#FAD100" width="51.003" height="17.001"/>
	
		<rect x="969.035" y="323.023" clip-path="url(#SVGID_4_)" fill-rule="evenodd" clip-rule="evenodd" fill="#FF5433" width="51.003" height="17.001"/>
	
		<rect x="612.012" y="374.026" clip-path="url(#SVGID_4_)" fill-rule="evenodd" clip-rule="evenodd" fill="#FAD100" width="51.003" height="17.001"/>
	
		<rect x="612.012" y="425.029" clip-path="url(#SVGID_4_)" fill-rule="evenodd" clip-rule="evenodd" fill="#FF7829" width="51.003" height="17.001"/>
	
		<rect x="714.019" y="374.026" clip-path="url(#SVGID_4_)" fill-rule="evenodd" clip-rule="evenodd" fill="#FAAB00" width="51.003" height="17.001"/>
	
		<rect x="816.026" y="374.026" clip-path="url(#SVGID_4_)" fill-rule="evenodd" clip-rule="evenodd" fill="#E02EB5" width="51.003" height="17.001"/>
	
		<rect x="663.015" y="391.028" clip-path="url(#SVGID_4_)" fill-rule="evenodd" clip-rule="evenodd" fill="#E02EB5" width="51.004" height="17.001"/>
	
		<rect x="765.023" y="391.028" clip-path="url(#SVGID_4_)" fill-rule="evenodd" clip-rule="evenodd" fill="#FAD100" width="51.003" height="17.001"/>
	
		<rect x="867.029" y="391.028" clip-path="url(#SVGID_4_)" fill-rule="evenodd" clip-rule="evenodd" fill="#FF5433" width="51.003" height="17.001"/>
	
		<rect x="714.019" y="442.031" clip-path="url(#SVGID_4_)" fill-rule="evenodd" clip-rule="evenodd" fill="#FF5433" width="51.003" height="17.001"/>
	
		<rect x="816.026" y="442.031" clip-path="url(#SVGID_4_)" fill-rule="evenodd" clip-rule="evenodd" fill="#FF5433" width="51.003" height="17.001"/>
	
		<rect x="867.029" y="459.033" clip-path="url(#SVGID_4_)" fill-rule="evenodd" clip-rule="evenodd" fill="#E02EB5" width="51.003" height="17.001"/>
	
		<rect x="663.015" y="476.034" clip-path="url(#SVGID_4_)" fill-rule="evenodd" clip-rule="evenodd" fill="#FAD100" width="51.004" height="17.001"/>
	
		<rect x="765.023" y="476.034" clip-path="url(#SVGID_4_)" fill-rule="evenodd" clip-rule="evenodd" fill="#FF7829" width="51.003" height="17.001"/>
	
		<rect x="918.032" y="374.026" clip-path="url(#SVGID_4_)" fill-rule="evenodd" clip-rule="evenodd" fill="#FAD100" width="51.003" height="17.001"/>
	
		<rect x="918.032" y="425.029" clip-path="url(#SVGID_4_)" fill-rule="evenodd" clip-rule="evenodd" fill="#FF7829" width="51.003" height="17.001"/>
	
		<rect x="969.035" y="391.028" clip-path="url(#SVGID_4_)" fill-rule="evenodd" clip-rule="evenodd" fill="#E02EB5" width="51.003" height="17.001"/>
	
		<rect x="969.035" y="476.034" clip-path="url(#SVGID_4_)" fill-rule="evenodd" clip-rule="evenodd" fill="#FAD100" width="51.003" height="17.001"/>
	
		<rect x="-0.026" y="-85.006" clip-path="url(#SVGID_4_)" fill-rule="evenodd" clip-rule="evenodd" fill="#FF5433" width="612.038" height="884.06"/>
	
		<rect x="-0.026" y="-34.002" clip-path="url(#SVGID_4_)" fill-rule="evenodd" clip-rule="evenodd" fill="#FF5433" width="51.003" height="85.006"/>
	
		<rect x="-0.026" y="68.005" clip-path="url(#SVGID_4_)" fill-rule="evenodd" clip-rule="evenodd" fill="#E02EB5" width="51.003" height="51.003"/>
	
		<rect x="50.977" y="-68.005" clip-path="url(#SVGID_4_)" fill-rule="evenodd" clip-rule="evenodd" fill="#A614B5" width="51.004" height="68.005"/>
	
		<rect x="152.984" y="-68.005" clip-path="url(#SVGID_4_)" fill-rule="evenodd" clip-rule="evenodd" fill="#FAAB00" width="51.003" height="68.005"/>
	
		<rect x="203.988" y="-17.001" clip-path="url(#SVGID_4_)" fill-rule="evenodd" clip-rule="evenodd" fill="#FA3363" width="51.003" height="51.003"/>
	
		<rect x="101.981" y="-17.001" clip-path="url(#SVGID_4_)" fill-rule="evenodd" clip-rule="evenodd" fill="#FF3333" width="51.003" height="68.005"/>
	
		<rect x="50.977" y="17.001" clip-path="url(#SVGID_4_)" fill-rule="evenodd" clip-rule="evenodd" fill="#FAAB00" width="51.004" height="51.003"/>
	
		<rect x="254.99" y="0" clip-path="url(#SVGID_4_)" fill-rule="evenodd" clip-rule="evenodd" fill="#A614B5" width="51.003" height="68.005"/>
	
		<rect x="50.977" y="85.006" clip-path="url(#SVGID_4_)" fill-rule="evenodd" clip-rule="evenodd" fill="#FF3333" width="51.004" height="51.003"/>
	
		<rect x="101.981" y="68.005" clip-path="url(#SVGID_4_)" fill-rule="evenodd" clip-rule="evenodd" fill="#A614B5" width="51.003" height="51.003"/>
	
		<rect x="152.984" y="17.003" clip-path="url(#SVGID_4_)" fill-rule="evenodd" clip-rule="evenodd" fill="#FF5433" width="51.003" height="119.007"/>
	
		<rect x="254.99" y="85.006" clip-path="url(#SVGID_4_)" fill-rule="evenodd" clip-rule="evenodd" fill="#FAAB00" width="51.003" height="51.003"/>
	
		<rect x="203.988" y="51.004" clip-path="url(#SVGID_4_)" fill-rule="evenodd" clip-rule="evenodd" fill="#FF7829" width="51.003" height="68.005"/>
	
		<rect x="305.994" y="-34.002" clip-path="url(#SVGID_4_)" fill-rule="evenodd" clip-rule="evenodd" fill="#FF5433" width="51.003" height="85.006"/>
	
		<rect x="305.994" y="68.005" clip-path="url(#SVGID_4_)" fill-rule="evenodd" clip-rule="evenodd" fill="#E02EB5" width="51.003" height="51.003"/>
	
		<rect x="356.997" y="-68.005" clip-path="url(#SVGID_4_)" fill-rule="evenodd" clip-rule="evenodd" fill="#A614B5" width="51.003" height="68.005"/>
	
		<rect x="459.003" y="-68.005" clip-path="url(#SVGID_4_)" fill-rule="evenodd" clip-rule="evenodd" fill="#FAAB00" width="51.003" height="68.005"/>
	
		<rect x="510.006" y="-17.001" clip-path="url(#SVGID_4_)" fill-rule="evenodd" clip-rule="evenodd" fill="#FA3363" width="51.003" height="51.003"/>
	
		<rect x="408" y="-17.001" clip-path="url(#SVGID_4_)" fill-rule="evenodd" clip-rule="evenodd" fill="#FF3333" width="51.003" height="68.005"/>
	
		<rect x="356.997" y="17.001" clip-path="url(#SVGID_4_)" fill-rule="evenodd" clip-rule="evenodd" fill="#FAAB00" width="51.003" height="51.003"/>
	
		<rect x="561.01" y="0" clip-path="url(#SVGID_4_)" fill-rule="evenodd" clip-rule="evenodd" fill="#A614B5" width="51.003" height="68.005"/>
	
		<rect x="356.997" y="85.006" clip-path="url(#SVGID_4_)" fill-rule="evenodd" clip-rule="evenodd" fill="#FF3333" width="51.003" height="51.003"/>
	
		<rect x="408" y="68.005" clip-path="url(#SVGID_4_)" fill-rule="evenodd" clip-rule="evenodd" fill="#A614B5" width="51.003" height="51.003"/>
	
		<rect x="459.003" y="17.003" clip-path="url(#SVGID_4_)" fill-rule="evenodd" clip-rule="evenodd" fill="#FF5433" width="51.003" height="119.007"/>
	
		<rect x="561.01" y="85.006" clip-path="url(#SVGID_4_)" fill-rule="evenodd" clip-rule="evenodd" fill="#FAAB00" width="51.003" height="51.003"/>
	
		<rect x="510.006" y="51.004" clip-path="url(#SVGID_4_)" fill-rule="evenodd" clip-rule="evenodd" fill="#FF7829" width="51.003" height="68.005"/>
	
		<rect x="-0.026" y="136.009" clip-path="url(#SVGID_4_)" fill-rule="evenodd" clip-rule="evenodd" fill="#FAAB00" width="51.003" height="34.002"/>
	
		<rect x="-0.026" y="187.013" clip-path="url(#SVGID_4_)" fill-rule="evenodd" clip-rule="evenodd" fill="#FF5433" width="51.003" height="85.006"/>
	
		<rect x="-0.026" y="289.021" clip-path="url(#SVGID_4_)" fill-rule="evenodd" clip-rule="evenodd" fill="#E02EB5" width="51.003" height="51.003"/>
	
		<rect x="101.981" y="136.009" clip-path="url(#SVGID_4_)" fill-rule="evenodd" clip-rule="evenodd" fill="#FF7829" width="51.003" height="51.003"/>
	
		<rect x="203.988" y="136.009" clip-path="url(#SVGID_4_)" fill-rule="evenodd" clip-rule="evenodd" fill="#A614B5" width="51.003" height="51.003"/>
	
		<rect x="254.99" y="153.011" clip-path="url(#SVGID_4_)" fill-rule="evenodd" clip-rule="evenodd" fill="#FF3333" width="51.003" height="51.003"/>
	
		<rect x="50.977" y="153.012" clip-path="url(#SVGID_4_)" fill-rule="evenodd" clip-rule="evenodd" fill="#A614B5" width="51.004" height="68.004"/>
	
		<rect x="152.984" y="153.012" clip-path="url(#SVGID_4_)" fill-rule="evenodd" clip-rule="evenodd" fill="#FAAB00" width="51.003" height="68.004"/>
	
		<rect x="203.988" y="204.015" clip-path="url(#SVGID_4_)" fill-rule="evenodd" clip-rule="evenodd" fill="#FA3363" width="51.003" height="51.003"/>
	
		<rect x="101.981" y="204.015" clip-path="url(#SVGID_4_)" fill-rule="evenodd" clip-rule="evenodd" fill="#FF3333" width="51.003" height="68.005"/>
	
		<rect x="50.977" y="238.017" clip-path="url(#SVGID_4_)" fill-rule="evenodd" clip-rule="evenodd" fill="#FAAB00" width="51.004" height="51.003"/>
	
		<rect x="254.99" y="221.016" clip-path="url(#SVGID_4_)" fill-rule="evenodd" clip-rule="evenodd" fill="#A614B5" width="51.003" height="68.005"/>
	
		<rect x="50.977" y="306.021" clip-path="url(#SVGID_4_)" fill-rule="evenodd" clip-rule="evenodd" fill="#FF3333" width="51.004" height="51.003"/>
	
		<rect x="101.981" y="289.021" clip-path="url(#SVGID_4_)" fill-rule="evenodd" clip-rule="evenodd" fill="#A614B5" width="51.003" height="51.003"/>
	
		<rect x="152.984" y="238.019" clip-path="url(#SVGID_4_)" fill-rule="evenodd" clip-rule="evenodd" fill="#FF5433" width="51.003" height="119.006"/>
	
		<rect x="254.99" y="306.021" clip-path="url(#SVGID_4_)" fill-rule="evenodd" clip-rule="evenodd" fill="#FAAB00" width="51.003" height="51.003"/>
	
		<rect x="203.988" y="272.019" clip-path="url(#SVGID_4_)" fill-rule="evenodd" clip-rule="evenodd" fill="#FF7829" width="51.003" height="68.005"/>
	
		<rect x="305.994" y="136.009" clip-path="url(#SVGID_4_)" fill-rule="evenodd" clip-rule="evenodd" fill="#FAAB00" width="51.003" height="34.002"/>
	
		<rect x="305.994" y="187.013" clip-path="url(#SVGID_4_)" fill-rule="evenodd" clip-rule="evenodd" fill="#FF5433" width="51.003" height="85.006"/>
	
		<rect x="305.994" y="289.021" clip-path="url(#SVGID_4_)" fill-rule="evenodd" clip-rule="evenodd" fill="#E02EB5" width="51.003" height="51.003"/>
	
		<rect x="408" y="136.009" clip-path="url(#SVGID_4_)" fill-rule="evenodd" clip-rule="evenodd" fill="#FF7829" width="51.003" height="51.003"/>
	
		<rect x="510.006" y="136.009" clip-path="url(#SVGID_4_)" fill-rule="evenodd" clip-rule="evenodd" fill="#A614B5" width="51.003" height="51.003"/>
	
		<rect x="561.01" y="153.011" clip-path="url(#SVGID_4_)" fill-rule="evenodd" clip-rule="evenodd" fill="#FF3333" width="51.003" height="51.003"/>
	
		<rect x="356.997" y="153.012" clip-path="url(#SVGID_4_)" fill-rule="evenodd" clip-rule="evenodd" fill="#A614B5" width="51.003" height="68.004"/>
	
		<rect x="459.003" y="153.012" clip-path="url(#SVGID_4_)" fill-rule="evenodd" clip-rule="evenodd" fill="#FAAB00" width="51.003" height="68.004"/>
	
		<rect x="510.006" y="204.015" clip-path="url(#SVGID_4_)" fill-rule="evenodd" clip-rule="evenodd" fill="#FA3363" width="51.003" height="51.003"/>
	
		<rect x="408" y="204.015" clip-path="url(#SVGID_4_)" fill-rule="evenodd" clip-rule="evenodd" fill="#FF3333" width="51.003" height="68.005"/>
	
		<rect x="356.997" y="238.017" clip-path="url(#SVGID_4_)" fill-rule="evenodd" clip-rule="evenodd" fill="#FAAB00" width="51.003" height="51.003"/>
	
		<rect x="561.01" y="221.016" clip-path="url(#SVGID_4_)" fill-rule="evenodd" clip-rule="evenodd" fill="#A614B5" width="51.003" height="68.005"/>
	
		<rect x="356.997" y="306.021" clip-path="url(#SVGID_4_)" fill-rule="evenodd" clip-rule="evenodd" fill="#FF3333" width="51.003" height="51.003"/>
	
		<rect x="408" y="289.021" clip-path="url(#SVGID_4_)" fill-rule="evenodd" clip-rule="evenodd" fill="#A614B5" width="51.003" height="51.003"/>
	
		<rect x="459.003" y="238.019" clip-path="url(#SVGID_4_)" fill-rule="evenodd" clip-rule="evenodd" fill="#FF5433" width="51.003" height="119.006"/>
	
		<rect x="561.01" y="306.021" clip-path="url(#SVGID_4_)" fill-rule="evenodd" clip-rule="evenodd" fill="#FAAB00" width="51.003" height="51.003"/>
	
		<rect x="510.006" y="272.019" clip-path="url(#SVGID_4_)" fill-rule="evenodd" clip-rule="evenodd" fill="#FF7829" width="51.003" height="68.005"/>
	
		<rect x="-0.026" y="357.025" clip-path="url(#SVGID_4_)" fill-rule="evenodd" clip-rule="evenodd" fill="#FAAB00" width="51.003" height="34.002"/>
	
		<rect x="-0.026" y="408.029" clip-path="url(#SVGID_4_)" fill-rule="evenodd" clip-rule="evenodd" fill="#FF5433" width="51.003" height="85.006"/>
	
		<rect x="101.981" y="357.025" clip-path="url(#SVGID_4_)" fill-rule="evenodd" clip-rule="evenodd" fill="#FF7829" width="51.003" height="51.003"/>
	
		<rect x="203.988" y="357.025" clip-path="url(#SVGID_4_)" fill-rule="evenodd" clip-rule="evenodd" fill="#A614B5" width="51.003" height="51.003"/>
	
		<rect x="254.99" y="374.026" clip-path="url(#SVGID_4_)" fill-rule="evenodd" clip-rule="evenodd" fill="#FF3333" width="51.003" height="51.003"/>
	
		<rect x="50.977" y="374.026" clip-path="url(#SVGID_4_)" fill-rule="evenodd" clip-rule="evenodd" fill="#A614B5" width="51.004" height="68.005"/>
	
		<rect x="152.984" y="374.026" clip-path="url(#SVGID_4_)" fill-rule="evenodd" clip-rule="evenodd" fill="#FAAB00" width="51.003" height="68.005"/>
	
		<rect x="203.988" y="425.03" clip-path="url(#SVGID_4_)" fill-rule="evenodd" clip-rule="evenodd" fill="#FA3363" width="51.003" height="51.003"/>
	
		<rect x="101.981" y="425.03" clip-path="url(#SVGID_4_)" fill-rule="evenodd" clip-rule="evenodd" fill="#FF3333" width="51.003" height="68.004"/>
	
		<rect x="50.977" y="459.033" clip-path="url(#SVGID_4_)" fill-rule="evenodd" clip-rule="evenodd" fill="#FAAB00" width="51.004" height="51.003"/>
	
		<rect x="254.99" y="442.031" clip-path="url(#SVGID_4_)" fill-rule="evenodd" clip-rule="evenodd" fill="#A614B5" width="51.003" height="68.004"/>
	
		<rect x="152.984" y="459.034" clip-path="url(#SVGID_4_)" fill-rule="evenodd" clip-rule="evenodd" fill="#FF5433" width="51.003" height="119.007"/>
	
		<rect x="203.988" y="493.035" clip-path="url(#SVGID_4_)" fill-rule="evenodd" clip-rule="evenodd" fill="#FF7829" width="51.003" height="68.005"/>
	
		<rect x="305.994" y="357.025" clip-path="url(#SVGID_4_)" fill-rule="evenodd" clip-rule="evenodd" fill="#FAAB00" width="51.003" height="34.002"/>
	
		<rect x="305.994" y="408.029" clip-path="url(#SVGID_4_)" fill-rule="evenodd" clip-rule="evenodd" fill="#FF5433" width="51.003" height="85.006"/>
	
		<rect x="408" y="357.025" clip-path="url(#SVGID_4_)" fill-rule="evenodd" clip-rule="evenodd" fill="#FF7829" width="51.003" height="51.003"/>
	
		<rect x="510.006" y="357.025" clip-path="url(#SVGID_4_)" fill-rule="evenodd" clip-rule="evenodd" fill="#A614B5" width="51.003" height="51.003"/>
	
		<rect x="561.01" y="374.026" clip-path="url(#SVGID_4_)" fill-rule="evenodd" clip-rule="evenodd" fill="#FF3333" width="51.003" height="51.003"/>
	
		<rect x="356.997" y="374.026" clip-path="url(#SVGID_4_)" fill-rule="evenodd" clip-rule="evenodd" fill="#A614B5" width="51.003" height="68.005"/>
	
		<rect x="459.003" y="374.026" clip-path="url(#SVGID_4_)" fill-rule="evenodd" clip-rule="evenodd" fill="#FAAB00" width="51.003" height="68.005"/>
	
		<rect x="510.006" y="425.03" clip-path="url(#SVGID_4_)" fill-rule="evenodd" clip-rule="evenodd" fill="#FA3363" width="51.003" height="51.003"/>
	
		<rect x="408" y="425.03" clip-path="url(#SVGID_4_)" fill-rule="evenodd" clip-rule="evenodd" fill="#FF3333" width="51.003" height="68.004"/>
	
		<rect x="356.997" y="459.033" clip-path="url(#SVGID_4_)" fill-rule="evenodd" clip-rule="evenodd" fill="#FAAB00" width="51.003" height="51.003"/>
	
		<rect x="561.01" y="442.031" clip-path="url(#SVGID_4_)" fill-rule="evenodd" clip-rule="evenodd" fill="#A614B5" width="51.003" height="68.004"/>
	
		<rect x="459.003" y="459.034" clip-path="url(#SVGID_4_)" fill-rule="evenodd" clip-rule="evenodd" fill="#FF5433" width="51.003" height="119.007"/>
	
		<rect x="510.006" y="493.035" clip-path="url(#SVGID_4_)" fill-rule="evenodd" clip-rule="evenodd" fill="#FF7829" width="51.003" height="68.005"/>
	
		<rect x="-0.026" y="-17.001" clip-path="url(#SVGID_4_)" fill-rule="evenodd" clip-rule="evenodd" fill="#FF7829" width="51.003" height="17.001"/>
	
		<rect x="-0.026" y="85.006" clip-path="url(#SVGID_4_)" fill-rule="evenodd" clip-rule="evenodd" fill="#FA3363" width="51.003" height="17.001"/>
	
		<rect x="101.981" y="0" clip-path="url(#SVGID_4_)" fill-rule="evenodd" clip-rule="evenodd" fill="#FF5433" width="51.003" height="17.001"/>
	
		<rect x="203.988" y="0" clip-path="url(#SVGID_4_)" fill-rule="evenodd" clip-rule="evenodd" fill="#FF5433" width="51.003" height="17.001"/>
	
		<rect x="254.99" y="17.002" clip-path="url(#SVGID_4_)" fill-rule="evenodd" clip-rule="evenodd" fill="#E02EB5" width="51.003" height="17.001"/>
	
		<rect x="50.977" y="34.003" clip-path="url(#SVGID_4_)" fill-rule="evenodd" clip-rule="evenodd" fill="#FAD100" width="51.004" height="17.001"/>
	
		<rect x="152.984" y="34.003" clip-path="url(#SVGID_4_)" fill-rule="evenodd" clip-rule="evenodd" fill="#FF7829" width="51.003" height="17.001"/>
	
		<rect x="203.988" y="68.005" clip-path="url(#SVGID_4_)" fill-rule="evenodd" clip-rule="evenodd" fill="#FAAB00" width="51.003" height="17.001"/>
	
		<rect x="101.981" y="85.006" clip-path="url(#SVGID_4_)" fill-rule="evenodd" clip-rule="evenodd" fill="#E02EB5" width="51.003" height="17.001"/>
	
		<rect x="50.977" y="102.007" clip-path="url(#SVGID_4_)" fill-rule="evenodd" clip-rule="evenodd" fill="#FF5433" width="51.004" height="17.001"/>
	
		<rect x="254.99" y="102.007" clip-path="url(#SVGID_4_)" fill-rule="evenodd" clip-rule="evenodd" fill="#FAD100" width="51.003" height="17.001"/>
	
		<rect x="305.994" y="-17.001" clip-path="url(#SVGID_4_)" fill-rule="evenodd" clip-rule="evenodd" fill="#FF7829" width="51.003" height="17.001"/>
	
		<rect x="305.994" y="85.006" clip-path="url(#SVGID_4_)" fill-rule="evenodd" clip-rule="evenodd" fill="#FA3363" width="51.003" height="17.001"/>
	
		<rect x="408" y="0" clip-path="url(#SVGID_4_)" fill-rule="evenodd" clip-rule="evenodd" fill="#FF5433" width="51.003" height="17.001"/>
	
		<rect x="510.006" y="0" clip-path="url(#SVGID_4_)" fill-rule="evenodd" clip-rule="evenodd" fill="#FF5433" width="51.003" height="17.001"/>
	
		<rect x="561.01" y="17.002" clip-path="url(#SVGID_4_)" fill-rule="evenodd" clip-rule="evenodd" fill="#E02EB5" width="51.003" height="17.001"/>
	
		<rect x="356.997" y="34.003" clip-path="url(#SVGID_4_)" fill-rule="evenodd" clip-rule="evenodd" fill="#FAD100" width="51.003" height="17.001"/>
	
		<rect x="459.003" y="34.003" clip-path="url(#SVGID_4_)" fill-rule="evenodd" clip-rule="evenodd" fill="#FF7829" width="51.003" height="17.001"/>
	
		<rect x="510.006" y="68.005" clip-path="url(#SVGID_4_)" fill-rule="evenodd" clip-rule="evenodd" fill="#FAAB00" width="51.003" height="17.001"/>
	
		<rect x="408" y="85.006" clip-path="url(#SVGID_4_)" fill-rule="evenodd" clip-rule="evenodd" fill="#E02EB5" width="51.003" height="17.001"/>
	
		<rect x="356.997" y="102.007" clip-path="url(#SVGID_4_)" fill-rule="evenodd" clip-rule="evenodd" fill="#FF5433" width="51.003" height="17.001"/>
	
		<rect x="561.01" y="102.007" clip-path="url(#SVGID_4_)" fill-rule="evenodd" clip-rule="evenodd" fill="#FAD100" width="51.003" height="17.001"/>
	
		<rect x="-0.026" y="153.011" clip-path="url(#SVGID_4_)" fill-rule="evenodd" clip-rule="evenodd" fill="#FAD100" width="51.003" height="17"/>
	
		<rect x="-0.026" y="204.015" clip-path="url(#SVGID_4_)" fill-rule="evenodd" clip-rule="evenodd" fill="#FF7829" width="51.003" height="17.001"/>
	
		<rect x="-0.026" y="306.022" clip-path="url(#SVGID_4_)" fill-rule="evenodd" clip-rule="evenodd" fill="#FA3363" width="51.003" height="17.001"/>
	
		<rect x="101.981" y="153.011" clip-path="url(#SVGID_4_)" fill-rule="evenodd" clip-rule="evenodd" fill="#FAAB00" width="51.003" height="17"/>
	
		<rect x="203.988" y="153.011" clip-path="url(#SVGID_4_)" fill-rule="evenodd" clip-rule="evenodd" fill="#E02EB5" width="51.003" height="17"/>
	
		<rect x="50.977" y="170.012" clip-path="url(#SVGID_4_)" fill-rule="evenodd" clip-rule="evenodd" fill="#E02EB5" width="51.004" height="17.001"/>
	
		<rect x="152.984" y="170.012" clip-path="url(#SVGID_4_)" fill-rule="evenodd" clip-rule="evenodd" fill="#FAD100" width="51.003" height="17.001"/>
	
		<rect x="254.99" y="170.012" clip-path="url(#SVGID_4_)" fill-rule="evenodd" clip-rule="evenodd" fill="#FF5433" width="51.003" height="17.001"/>
	
		<rect x="101.981" y="221.016" clip-path="url(#SVGID_4_)" fill-rule="evenodd" clip-rule="evenodd" fill="#FF5433" width="51.003" height="17.001"/>
	
		<rect x="203.988" y="221.016" clip-path="url(#SVGID_4_)" fill-rule="evenodd" clip-rule="evenodd" fill="#FF5433" width="51.003" height="17.001"/>
	
		<rect x="254.99" y="238.017" clip-path="url(#SVGID_4_)" fill-rule="evenodd" clip-rule="evenodd" fill="#E02EB5" width="51.003" height="17.001"/>
	
		<rect x="50.977" y="255.018" clip-path="url(#SVGID_4_)" fill-rule="evenodd" clip-rule="evenodd" fill="#FAD100" width="51.004" height="17.001"/>
	
		<rect x="152.984" y="255.018" clip-path="url(#SVGID_4_)" fill-rule="evenodd" clip-rule="evenodd" fill="#FF7829" width="51.003" height="17.001"/>
	
		<rect x="203.988" y="289.021" clip-path="url(#SVGID_4_)" fill-rule="evenodd" clip-rule="evenodd" fill="#FAAB00" width="51.003" height="17.001"/>
	
		<rect x="101.981" y="306.022" clip-path="url(#SVGID_4_)" fill-rule="evenodd" clip-rule="evenodd" fill="#E02EB5" width="51.003" height="17.001"/>
	
		<rect x="50.977" y="323.023" clip-path="url(#SVGID_4_)" fill-rule="evenodd" clip-rule="evenodd" fill="#FF5433" width="51.004" height="17.001"/>
	
		<rect x="254.99" y="323.023" clip-path="url(#SVGID_4_)" fill-rule="evenodd" clip-rule="evenodd" fill="#FAD100" width="51.003" height="17.001"/>
	
		<rect x="305.994" y="153.011" clip-path="url(#SVGID_4_)" fill-rule="evenodd" clip-rule="evenodd" fill="#FAD100" width="51.003" height="17"/>
	
		<rect x="305.994" y="204.015" clip-path="url(#SVGID_4_)" fill-rule="evenodd" clip-rule="evenodd" fill="#FF7829" width="51.003" height="17.001"/>
	
		<rect x="305.994" y="306.022" clip-path="url(#SVGID_4_)" fill-rule="evenodd" clip-rule="evenodd" fill="#FA3363" width="51.003" height="17.001"/>
	
		<rect x="408" y="153.011" clip-path="url(#SVGID_4_)" fill-rule="evenodd" clip-rule="evenodd" fill="#FAAB00" width="51.003" height="17"/>
	
		<rect x="510.006" y="153.011" clip-path="url(#SVGID_4_)" fill-rule="evenodd" clip-rule="evenodd" fill="#E02EB5" width="51.003" height="17"/>
	
		<rect x="356.997" y="170.012" clip-path="url(#SVGID_4_)" fill-rule="evenodd" clip-rule="evenodd" fill="#E02EB5" width="51.003" height="17.001"/>
	
		<rect x="459.003" y="170.012" clip-path="url(#SVGID_4_)" fill-rule="evenodd" clip-rule="evenodd" fill="#FAD100" width="51.003" height="17.001"/>
	
		<rect x="561.01" y="170.012" clip-path="url(#SVGID_4_)" fill-rule="evenodd" clip-rule="evenodd" fill="#FF5433" width="51.003" height="17.001"/>
	
		<rect x="408" y="221.016" clip-path="url(#SVGID_4_)" fill-rule="evenodd" clip-rule="evenodd" fill="#FF5433" width="51.003" height="17.001"/>
	
		<rect x="510.006" y="221.016" clip-path="url(#SVGID_4_)" fill-rule="evenodd" clip-rule="evenodd" fill="#FF5433" width="51.003" height="17.001"/>
	
		<rect x="561.01" y="238.017" clip-path="url(#SVGID_4_)" fill-rule="evenodd" clip-rule="evenodd" fill="#E02EB5" width="51.003" height="17.001"/>
	
		<rect x="356.997" y="255.018" clip-path="url(#SVGID_4_)" fill-rule="evenodd" clip-rule="evenodd" fill="#FAD100" width="51.003" height="17.001"/>
	
		<rect x="459.003" y="255.018" clip-path="url(#SVGID_4_)" fill-rule="evenodd" clip-rule="evenodd" fill="#FF7829" width="51.003" height="17.001"/>
	
		<rect x="510.006" y="289.021" clip-path="url(#SVGID_4_)" fill-rule="evenodd" clip-rule="evenodd" fill="#FAAB00" width="51.003" height="17.001"/>
	
		<rect x="408" y="306.022" clip-path="url(#SVGID_4_)" fill-rule="evenodd" clip-rule="evenodd" fill="#E02EB5" width="51.003" height="17.001"/>
	
		<rect x="356.997" y="323.023" clip-path="url(#SVGID_4_)" fill-rule="evenodd" clip-rule="evenodd" fill="#FF5433" width="51.003" height="17.001"/>
	
		<rect x="561.01" y="323.023" clip-path="url(#SVGID_4_)" fill-rule="evenodd" clip-rule="evenodd" fill="#FAD100" width="51.003" height="17.001"/>
	
		<rect x="-0.026" y="374.026" clip-path="url(#SVGID_4_)" fill-rule="evenodd" clip-rule="evenodd" fill="#FAD100" width="51.003" height="17.001"/>
	
		<rect x="-0.026" y="425.029" clip-path="url(#SVGID_4_)" fill-rule="evenodd" clip-rule="evenodd" fill="#FF7829" width="51.003" height="17.001"/>
	
		<rect x="101.981" y="374.026" clip-path="url(#SVGID_4_)" fill-rule="evenodd" clip-rule="evenodd" fill="#FAAB00" width="51.003" height="17.001"/>
	
		<rect x="203.988" y="374.026" clip-path="url(#SVGID_4_)" fill-rule="evenodd" clip-rule="evenodd" fill="#E02EB5" width="51.003" height="17.001"/>
	
		<rect x="50.977" y="391.028" clip-path="url(#SVGID_4_)" fill-rule="evenodd" clip-rule="evenodd" fill="#E02EB5" width="51.004" height="17.001"/>
	
		<rect x="152.984" y="391.028" clip-path="url(#SVGID_4_)" fill-rule="evenodd" clip-rule="evenodd" fill="#FAD100" width="51.003" height="17.001"/>
	
		<rect x="254.99" y="391.028" clip-path="url(#SVGID_4_)" fill-rule="evenodd" clip-rule="evenodd" fill="#FF5433" width="51.003" height="17.001"/>
	
		<rect x="101.981" y="442.031" clip-path="url(#SVGID_4_)" fill-rule="evenodd" clip-rule="evenodd" fill="#FF5433" width="51.003" height="17.001"/>
	
		<rect x="203.988" y="442.031" clip-path="url(#SVGID_4_)" fill-rule="evenodd" clip-rule="evenodd" fill="#FF5433" width="51.003" height="17.001"/>
	
		<rect x="254.99" y="459.033" clip-path="url(#SVGID_4_)" fill-rule="evenodd" clip-rule="evenodd" fill="#E02EB5" width="51.003" height="17.001"/>
	
		<rect x="50.977" y="476.034" clip-path="url(#SVGID_4_)" fill-rule="evenodd" clip-rule="evenodd" fill="#FAD100" width="51.004" height="17.001"/>
	
		<rect x="152.984" y="476.034" clip-path="url(#SVGID_4_)" fill-rule="evenodd" clip-rule="evenodd" fill="#FF7829" width="51.003" height="17.001"/>
	
		<rect x="305.994" y="374.026" clip-path="url(#SVGID_4_)" fill-rule="evenodd" clip-rule="evenodd" fill="#FAD100" width="51.003" height="17.001"/>
	
		<rect x="305.994" y="425.029" clip-path="url(#SVGID_4_)" fill-rule="evenodd" clip-rule="evenodd" fill="#FF7829" width="51.003" height="17.001"/>
	
		<rect x="408" y="374.026" clip-path="url(#SVGID_4_)" fill-rule="evenodd" clip-rule="evenodd" fill="#FAAB00" width="51.003" height="17.001"/>
	
		<rect x="510.006" y="374.026" clip-path="url(#SVGID_4_)" fill-rule="evenodd" clip-rule="evenodd" fill="#E02EB5" width="51.003" height="17.001"/>
	
		<rect x="356.997" y="391.028" clip-path="url(#SVGID_4_)" fill-rule="evenodd" clip-rule="evenodd" fill="#E02EB5" width="51.003" height="17.001"/>
	
		<rect x="459.003" y="391.028" clip-path="url(#SVGID_4_)" fill-rule="evenodd" clip-rule="evenodd" fill="#FAD100" width="51.003" height="17.001"/>
	
		<rect x="561.01" y="391.028" clip-path="url(#SVGID_4_)" fill-rule="evenodd" clip-rule="evenodd" fill="#FF5433" width="51.003" height="17.001"/>
	
		<rect x="408" y="442.031" clip-path="url(#SVGID_4_)" fill-rule="evenodd" clip-rule="evenodd" fill="#FF5433" width="51.003" height="17.001"/>
	
		<rect x="510.006" y="442.031" clip-path="url(#SVGID_4_)" fill-rule="evenodd" clip-rule="evenodd" fill="#FF5433" width="51.003" height="17.001"/>
	
		<rect x="561.01" y="459.033" clip-path="url(#SVGID_4_)" fill-rule="evenodd" clip-rule="evenodd" fill="#E02EB5" width="51.003" height="17.001"/>
	
		<rect x="356.997" y="476.034" clip-path="url(#SVGID_4_)" fill-rule="evenodd" clip-rule="evenodd" fill="#FAD100" width="51.003" height="17.001"/>
	
		<rect x="459.003" y="476.034" clip-path="url(#SVGID_4_)" fill-rule="evenodd" clip-rule="evenodd" fill="#FF7829" width="51.003" height="17.001"/>
</g>
</svg>
