<?xml version="1.0" encoding="utf-8"?>
<!-- Generator: Adobe Illustrator 18.1.0, SVG Export Plug-In . SVG Version: 6.00 Build 0)  -->
<svg version="1.1" id="Слой_1" xmlns="http://www.w3.org/2000/svg" xmlns:xlink="http://www.w3.org/1999/xlink" x="0px" y="0px"
	 width="127px" height="44px" viewBox="0 0 127 44" enable-background="new 0 0 127 44" xml:space="preserve">
<g>
	<g opacity="0.8">
		<g>
			<path fill="#FFFFFF" d="M40,3v38H2V3H40 M42,1H0v42h42V1L42,1z"/>
		</g>
		<g>
			<polygon fill="#FFFFFF" points="21,27.5 11,17.838 12.385,16.5 21,24.823 29.615,16.5 31,17.838 			"/>
		</g>
	</g>
	<g opacity="0.8">
		<path fill="#FFFFFF" d="M43,42V2h40v40H43z M51.561,18.838L63,29.891l11.439-11.053l-2.825-2.729L63,24.433l-8.614-8.323
			L51.561,18.838z"/>
		<path fill="#FFFFFF" d="M82,3v38H44V3H82 M63,23.042l-7.225-6.98l-1.39-1.343l-1.39,1.343L51.61,17.4l-1.489,1.438l1.489,1.438
			l10,9.662L63,31.281l1.39-1.343l10-9.662l1.489-1.438L74.39,17.4l-1.385-1.338l-1.39-1.343l-1.39,1.343L63,23.042 M84,1H42v42h42
			V1L84,1z M63,25.823l8.615-8.323L73,18.838L63,28.5l-10-9.662l1.385-1.338L63,25.823L63,25.823z"/>
	</g>
	<g>
		<path fill="#FFFFFF" d="M85,42V2h40v40H85z M93.561,18.838L105,29.891l11.439-11.053l-2.825-2.729L105,24.433l-8.614-8.323
			L93.561,18.838z"/>
		<path fill="#FFFFFF" d="M124,3v38H86V3H124 M105,23.042l-7.225-6.98l-1.39-1.343l-1.39,1.343L93.61,17.4l-1.489,1.438l1.489,1.438
			l10,9.662l1.39,1.343l1.39-1.343l10-9.662l1.489-1.438L116.39,17.4l-1.385-1.338l-1.39-1.343l-1.39,1.343L105,23.042 M126,1H84v42
			h42V1L126,1z M105,25.823l8.615-8.323L115,18.838L105,28.5l-10-9.662l1.385-1.338L105,25.823L105,25.823z"/>
	</g>
</g>
</svg>
