<?xml version="1.0" encoding="utf-8"?>
<!-- Generator: Adobe Illustrator 18.1.0, SVG Export Plug-In . SVG Version: 6.00 Build 0)  -->
<svg version="1.1" id="Слой_1" xmlns="http://www.w3.org/2000/svg" xmlns:xlink="http://www.w3.org/1999/xlink" x="0px" y="0px"
	 width="120px" height="40px" viewBox="0 0 120 40" enable-background="new 0 0 120 40" xml:space="preserve">
<g>
	<g>
		<g>
			<rect x="41" y="1" fill="#FF5333" width="38" height="38"/>
			<path fill="#FF5333" d="M78,2v36H42V2H78 M80,0H40v40h40V0L80,0z"/>
		</g>
		<g>
			<polygon fill="#FFFFFF" points="57.192,29.966 55.854,28.58 64.177,19.966 55.854,11.351 57.192,9.966 66.854,19.966 			"/>
		</g>
	</g>
	<g>
		<g>
			<polygon fill="#FF5333" points="17.192,29.966 15.854,28.58 24.177,19.966 15.854,11.351 17.192,9.966 26.854,19.966 			"/>
		</g>
		<g>
			<path fill="#FF5333" d="M38,2v36H2V2H38 M40,0H0v40h40V0L40,0z"/>
		</g>
	</g>
	<g>
		<g>
			<rect x="80" fill="#E23F24" width="40" height="40"/>
		</g>
		<g>
			<polygon fill="#FFFFFF" points="97.192,29.966 95.854,28.58 104.177,19.966 95.854,11.351 97.192,9.966 106.854,19.966 			"/>
		</g>
	</g>
</g>
</svg>
